  Capacity,Word Width,    Total Area,Area Efficiency,  Read Latency, Write Latency,   Read Energy,  Write Energy,   Leakage
       4KiB,  (4Bytes),  2614.797um^2,        33.896%,       1.923ns,       5.459ns,       7.166pJ,       8.289pJ,  16.246uW
       8KiB,  (4Bytes),  3616.703um^2,        49.012%,       1.936ns,       5.465ns,       7.174pJ,       8.423pJ,  22.535uW
      16KiB,  (4Bytes),  6950.492um^2,        51.007%,       2.251ns,       5.780ns,       7.175pJ,       8.425pJ,  30.866uW
      32KiB,  (4Bytes), 14466.812um^2,        49.012%,       1.940ns,       5.467ns,       7.737pJ,       8.985pJ,  90.139uW
      64KiB,  (4Bytes), 19645.589um^2,        72.184%,       1.992ns,       5.485ns,       8.082pJ,       9.485pJ, 133.325uW
     128KiB,  (4Bytes), 43079.346um^2,        65.836%,       2.307ns,       5.803ns,       8.152pJ,       9.649pJ, 180.344uW
     256KiB,  (4Bytes), 67711.398um^2,        83.773%,       2.435ns,       5.820ns,       8.804pJ,      10.661pJ, 241.452uW
     512KiB,  (4Bytes),132594.307um^2,        85.560%,       3.075ns,       6.458ns,       9.086pJ,      10.950pJ, 282.517uW
