interval,evicts,flushes,mem_wr,read_hits,read_misses,stores,write_hits,write_misses
0,0,40,40,460502,32,406678,406640,38
1,0,22,22,455598,31,402012,401995,17
2,0,96,96,459650,81,405189,405104,85
3,0,86,86,872744,53,733635,733566,69
4,0,77,77,873801,63,735065,735008,57
5,0,82,82,870712,63,733470,733409,61
6,0,74,74,154565,63,130141,130100,41
