,freezer_avg_backup_size,freezer_tot_backup_size,num_intervals,mem_size,E_program,E_LD,E_ST,E_leakage_sram,E_cache_hits_2048_stt,E_cache_misses_2048_stt,E_cache_flushes_2048_stt,E_cache2048_stt,E_cache_hits_4096_stt,E_cache_misses_4096_stt,E_cache_flushes_4096_stt,E_cache4096_stt,E_cache_hits_8192_stt,E_cache_misses_8192_stt,E_cache_flushes_8192_stt,E_cache8192_stt,E_cache_hits_16384_stt,E_cache_misses_16384_stt,E_cache_flushes_16384_stt,E_cache16384_stt,E_freezer_stt,E_freezer_restore_stt,E_freezer_save_stt,E_full_memory_stt,E_leakage_stt,E_stt_only,E_cache_hits_2048_stt_aggressive,E_cache_misses_2048_stt_aggressive,E_cache_flushes_2048_stt_aggressive,E_cache2048_stt_aggressive,E_cache_hits_4096_stt_aggressive,E_cache_misses_4096_stt_aggressive,E_cache_flushes_4096_stt_aggressive,E_cache4096_stt_aggressive,E_cache_hits_8192_stt_aggressive,E_cache_misses_8192_stt_aggressive,E_cache_flushes_8192_stt_aggressive,E_cache8192_stt_aggressive,E_cache_hits_16384_stt_aggressive,E_cache_misses_16384_stt_aggressive,E_cache_flushes_16384_stt_aggressive,E_cache16384_stt_aggressive,E_freezer_stt_aggressive,E_freezer_restore_stt_aggressive,E_freezer_save_stt_aggressive,E_full_memory_stt_aggressive,E_leakage_stt_aggressive,E_stt_aggressive_only,E_cache_hits_2048_rram,E_cache_misses_2048_rram,E_cache_flushes_2048_rram,E_cache2048_rram,E_cache_hits_4096_rram,E_cache_misses_4096_rram,E_cache_flushes_4096_rram,E_cache4096_rram,E_cache_hits_8192_rram,E_cache_misses_8192_rram,E_cache_flushes_8192_rram,E_cache8192_rram,E_cache_hits_16384_rram,E_cache_misses_16384_rram,E_cache_flushes_16384_rram,E_cache16384_rram,E_freezer_rram,E_freezer_restore_rram,E_freezer_save_rram,E_full_memory_rram,E_leakage_rram,E_rram_only
susan_smooth_small.csv,223.31428571428572,7816.0,35.0,8192.0,8668992.429,8465243.904,203748.525,6083990.009000001,26949833.000000004,1974484.992,10147.296,28934465.288000003,32236250.000000004,623240.9920000001,35608.232,32895099.224000003,54140415.00000001,331107.784,88692.648,54560215.43200001,70613270.0,180558.616,175963.72,70969792.336,11597940.341,2752798.72,176149.192,17883599.789,150874455.03045,46484912.655,26949833.000000004,1164926.2079999999,5962.72,28120721.928000003,32236250.000000004,380147.83999999997,19155.24,32635553.080000002,54140415.00000001,226040.976,50936.36,54417392.33600001,70613270.0,147824.03999999998,108915.4,70870009.44000001,11307473.653,2555248.64,83232.58399999999,14277522.349,153185691.45845,40918357.736999996,26949833.000000004,2026134.2719999999,11309.952,28987277.224000003,32236250.000000004,630151.1039999999,40179.583999999995,32906580.688,54140415.00000001,320345.70399999997,99182.976,54559943.680000015,70613270.0,158919.712,194592.63999999998,70966782.352,10929320.749,2058362.88,201965.44,18136200.108999997,373060750.496,34736256.072
susan_edge_small.csv,2638.6666666666665,15832.0,6.0,16384.0,2056106.348,1881675.0,174431.348,1909690.4980000001,4854967.000000001,1505709.488,5791.168,6366467.656,5737136.000000001,1121758.992,10917.696,6869812.688000001,9856075.0,1008589.2320000001,23885.376,10888549.608000001,12983854.0,824688.0800000001,40823.04,13849365.12,3425648.7800000003,990904.3200000001,378638.112,5398049.132,38294095.3828,9233577.776,4854967.000000001,902827.2,2832.2799999999997,5760626.480000001,5737136.000000001,676580.9839999999,5477.16,6419194.144000001,9856075.0,626695.52,12717.96,10495488.48,12983854.0,530536.024,23642.4,13538032.424,3176791.748,930938.8800000001,189746.52,4165218.6679999996,35559984.028749995,7275068.375,4854967.000000001,1751351.1199999999,7566.599999999999,6613884.720000001,5737136.000000001,1301675.424,14182.199999999999,7052993.624000001,9856075.0,1160269.2,30586.2,11046930.399999999,12983854.0,935789.9839999999,51132.0,13970775.984,3339924.468,791838.72,491979.39999999997,5902741.868,79422320.8259,8609099.715
matmul_float_16.csv,433.37142857142857,15168.0,35.0,2048.0,1751878.04,1203937.79,547940.25,2029446.5454999998,40923472.00000001,2745669.616,31396.48,43700538.096,46982144.00000001,120059.424,47664.96,47149868.38400001,84764365.0,39637.344,68219.36,84872221.704,113791028.0,41788.64,104546.79999999999,113937363.44,2643497.112,577884.1599999999,313734.91199999995,3812391.3199999994,37226087.66725,81520270.69,40923472.00000001,1573415.7040000001,14659.584,42511547.28800001,46982144.00000001,78845.53600000001,23700.768,47084690.304000005,84764365.0,36461.328,41402.288,84842228.616,113791028.0,39194.24,77444.44,113907666.67999999,2413735.896,528424.9600000001,133432.896,2910871.96,37796345.37425,46403315.41500001,40923472.00000001,2783206.7120000003,35751.424,43742430.13600001,46982144.00000001,113188.048,53900.448,47149232.49600001,84764365.0,29843.600000000002,75197.168,84869405.76799999,113791028.0,31888.56,111598.84,113934515.4,2501678.296,389150.72000000003,360649.53599999996,3845364.1199999996,92046302.824,81603910.75999999
fft.csv,286.3492063492063,18040.0,63.0,2048.0,2253481.912,1551336.292,702145.62,3737967.937,52589464.000000015,2240538.256,48909.6,54878911.85600001,60337658.000000015,273392.064,81962.4,60693012.46400002,108846241.0,64772.232,117498.0,109028511.232,146109808.0,67039.648,182334.96,146359182.608,3666812.76,1040191.4879999999,373139.3599999999,5962405.816,68565453.1915,104642660.61199999,52589464.000000015,1289326.92,23233.68,53902024.60000002,60337658.000000015,173459.352,41071.12,60552188.47200001,108846241.0,59145.07200000001,72327.40000000001,108977713.472,146109808.0,62877.568,136974.168,146309659.736,3363344.7199999997,951164.9280000001,158697.88,4339670.968,69615791.2895,59627009.06200001,52589464.000000015,2266460.648,55590.479999999996,54911515.12800001,60337658.000000015,263011.584,92602.31999999999,60693271.904000014,108846241.0,49113.688,129251.4,109024606.088,146109808.0,51157.392,194137.848,146355103.23999998,3382890.288,700471.2960000001,428937.07999999996,6021756.856,169536925.93600002,104689452.868
cjpeg.nocache.csv,3165.0,25320.0,8.0,8192.0,2728667.7359999996,2064980.7359999998,663687.0,1288783.8900000001,10157644.000000002,49630084.992000006,6317.456,59794046.44800001,12133414.000000002,36580482.712,11722.024000000001,48725618.735999994,22594619.0,11979688.928,22987.288,34597295.216000006,30613531.0,3070194.84,58230.696,33741956.536000006,3928515.7119999994,629211.136,570636.8400000001,4834863.704,31960040.4945,22246352.244000003,10157644.000000002,29115135.983999997,3083.92,39275863.904,12133414.000000002,21523699.552,5920.679999999999,33663034.232,22594619.0,7230208.816,12811.16,29837638.976,30613531.0,1899522.784,32647.719999999998,32545701.504,3582357.2479999997,584056.832,269632.68,4010617.4319999996,32449634.3745,14676503.237999998,10157644.000000002,51065861.647999994,7215.871999999999,61230721.519999996,12133414.000000002,37632658.256,13333.887999999999,49779406.143999994,22594619.0,12307323.792,25814.656,34927757.448,30613531.0,3142080.4639999997,65338.75199999999,33820950.216,3853419.4799999995,470482.94399999996,654268.8,4892600.92,79026212.16,21106379.736
search_large.csv,751.3333333333334,9016.0,12.0,8192.0,2699005.144,1602466.944,1096538.2,1927642.766,12934964.000000004,9153774.272,14986.656,22103724.928000003,15071010.000000004,1235911.04,21173.192000000003,16328094.232000003,27331175.0,510469.44,27885.064000000006,27869529.504,36753340.0,311654.36,53698.768000000004,37118693.128,3846015.4400000004,943816.7040000001,203193.59200000003,5858299.096000001,47802848.3583,27593599.498000003,12934964.000000004,5373026.232,6997.92,18314988.152000006,15071010.000000004,733834.7520000001,10426.44,15815271.192000004,27331175.0,321078.984,16377.480000000001,27668631.464,36753340.0,213554.64,34487.759999999995,37001382.4,3671101.776,876085.2480000001,96011.38399999999,4621929.688,48535137.230299994,15835911.116999999,12934964.000000004,9416080.456,17206.272,22368250.728000004,15071010.000000004,1266021.632,24159.104,16361190.736000003,27331175.0,514605.86399999994,31082.368000000002,27876863.232,36753340.0,304099.76,59036.416,37116476.176,3637702.9999999995,705724.416,232973.44,5944904.92,118200039.104,28343601.507999998
matmul_int_16.csv,400.0,800.0,2.0,1024.0,23289.477000000003,18247.08,5042.397,28483.299,823242.0000000001,70014.552,4532.704,897789.2560000002,952816.0000000001,21639.136,9777.216,984232.3520000002,1694201.0,12154.8,12940.544,1719296.344,2261428.0,13204.8,14988.544,2289621.344,55767.397000000004,16107.519999999999,16370.400000000001,81305.221,770984.47665,1565687.4679999999,823242.0000000001,41516.831999999995,1950.424,866709.2560000002,952816.0000000001,15632.560000000001,4230.0960000000005,972678.6560000002,1694201.0,11449.2,6054.464,1711704.6639999999,2261428.0,12499.2,8102.464,2282029.6640000003,44999.173,14903.296,6806.4,55617.15700000001,593255.9943,973615.523,823242.0000000001,65176.312000000005,4771.384,893189.6960000001,952816.0000000001,18317.4,10289.936,981423.3360000001,1694201.0,8971.2,13577.024,1716749.224,2261428.0,10021.199999999999,15625.024,2287074.2240000004,51218.05300000001,10674.176,17254.4,78134.917,1221349.2543,1394836.343
dijkstra.csv,1897.4736842105262,144208.0,76.0,16384.0,36523145.796,30696090.0,5827055.795999999,26729471.066,90365890.00000001,428773102.79200006,19614.912,519158607.70400006,109557492.00000003,249066724.36800003,38063.936,358662280.304,198720828.0,95049352.47999999,95926.528,293866107.008,265902546.0,54928976.816,236627.90399999998,321068150.71999997,52523479.04399999,12551454.72,3448878.528,78854421.06,535993091.86759996,196632110.18400002,90365890.00000001,256621300.512,12074.52,346999265.032,109557492.00000003,149485083.64,24987.56,259067563.20000002,198720828.0,58412815.936000004,69582.88,257203226.81599998,265902546.0,34405456.616,175254.84,300483257.456,50043371.155999996,11791892.48,1728332.88,63238568.515999995,497724403.61375,139053933.747,90365890.00000001,499238815.672,24139.399999999998,589628845.072,109557492.00000003,289814547.36,45910.200000000004,399417949.56,198720828.0,110010247.776,111733.6,308842809.37600005,265902546.0,63256300.896,273453.8,329432300.69600004,51034366.515999995,10029957.12,4481263.6,85247195.71599999,1111654809.3703,201822954.83699998
matmul_int_32.csv,550.4,2752.0,5.0,4096.0,387044.557,340493.832,46550.725,409170.96,4195561.000000001,8037358.528000001,4852.624,12237772.152,5038604.000000001,1218758.28,6567.008,6263929.288000002,8947060.0,158860.064,14578.928,9120498.991999999,11917763.0,42168.456,36519.952000000005,11996451.408,611678.8609999999,165969.92,58664.384,989586.6369999999,6799436.314,8284230.026000001,4195561.000000001,4538731.6,2219.8,8736512.400000002,5038604.000000001,693546.0,3251.6000000000004,5735401.600000001,8947060.0,99798.80000000002,7850.6,9054709.4,11917763.0,38422.200000000004,19845.4,11976030.6,563512.013,151347.19999999998,25120.256,725333.1969999999,5846977.246,5299307.075,4195561.000000001,9235287.344,6328.984,13437177.328,5038604.000000001,1396074.496,8426.128,6443104.624000001,8947060.0,173664.56,18351.848,9139076.408,11917763.0,34122.12,45870.232,11997755.352,581091.021,116572.16,77474.304,1080169.677,18615194.939000003,8595872.323
average,1149.5454005383829,26550.222222222223,26.88888888888889,7395.555555555556,6343512.382111111,5313830.175333332,1029682.2067777778,4904960.7745,27088337.44444445,56014526.38755556,16283.210666666668,83119147.04266667,32005169.33333334,32251329.667555556,29272.962666666666,64285771.96355556,57432775.44444445,12128292.478222221,52512.63733333334,69613580.56,76771840.8888889,6608919.361777778,100414.93155555557,83481175.18222222,9144372.827444443,2185370.9653333332,615489.48,13741657.975000001,102031832.53144999,55355933.46144445,27088337.44444445,33402245.24355556,8112.760888888889,60498695.4488889,32005169.33333334,19306758.91288889,15357.851555555557,51327286.097777784,57432775.44444445,7447077.181333333,32228.954666666672,64912081.580444425,76771840.8888889,4149987.479111111,68590.51022222222,80990418.87822221,8685187.487,2042673.6071111113,299001.4977777778,10927261.103888888,97923024.5122,36673669.03211111,27088337.44444445,64205374.90933333,18875.596444444443,91312587.95022222,32005169.33333334,36937293.92266667,33664.86755555555,68976128.12355556,57432775.44444445,13841598.375999998,59419.69333333333,71333793.51377779,76771840.8888889,7547153.343111111,112309.50577777775,84431303.73777777,8812401.318999998,1697026.048,771862.8888888889,14572118.789222222,226975989.43438888,54544707.12911111
