interval,evicts,flushes,mem_wr,read_hits,read_misses,stores,write_hits,write_misses
0,21075,40,21115,1300552,17849,703729,700247,3482
1,53815,35,53850,1638885,51825,535447,533201,2246
2,53925,23,53948,1645333,52052,543690,541561,2129
3,54124,32,54156,1642866,52221,537217,535058,2159
4,53813,37,53850,1639412,51852,532023,529806,2217
5,52916,30,52946,1642279,50990,542136,539954,2182
6,52151,30,52181,1643671,50224,543103,540920,2183
7,23249,49,23298,775827,22598,260822,259915,907
