interval,evicts,flushes,mem_wr,read_hits,read_misses,stores,write_hits,write_misses
0,6,104,110,941798,95,797340,797237,103
1,0,57,57,967196,55,836874,836839,35
2,0,57,57,967054,53,836787,836751,36
3,0,64,64,342775,59,296374,296338,36
