interval,evicts,flushes,mem_wr,read_hits,read_misses,stores,write_hits,write_misses
0,25706,120,25826,2604345,2919,317783,294740,23043
1,6320,113,6433,3329183,3292,16124,12840,3284
2,4377,30,4407,2749294,2944,58705,57016,1689
3,3772,20,3792,758695,3741,238906,238619,287
4,3472,24,3496,749695,3444,234733,234449,284
5,3123,28,3151,777649,3081,239023,238725,298
6,3763,24,3787,782414,3706,240215,239902,313
7,3690,16,3706,776127,3605,239995,239654,341
8,3714,23,3737,777729,3666,242166,241862,304
9,3750,24,3774,745462,3663,234007,233664,343
10,4666,19,4685,753666,4521,238982,238581,401
11,5617,47,5664,795800,5380,235052,234559,493
12,5178,58,5236,1521423,5362,70478,70406,72
13,16380,93,16473,1119891,11027,128696,123087,5609
14,346,106,452,10227,373,1954,1725,229
