,full_mem_page512,savings_avg,savings_std,num_interval_avg,num_interval_std
./script_traces/nocache/susan_smooth_small.csv,7040.0,0.8483705041170946,0.05617865482225554,7.62,2.481364889969172
./script_traces/nocache/susan_edge_small.csv,13696.0,0.41750048676012463,0.2365520797577239,2.06,1.0993110790330682
./script_traces/nocache/crc_large.csv,2048.0,0.77734375,0.0,1.0,0.0
./script_traces/nocache/matmul_float_16.csv,2944.0,0.8283909369615889,0.012744878977190871,7.5,2.393172105652397
./script_traces/nocache/fft.csv,3200.0,0.8744238625285102,0.01802685040346721,13.38,3.1197643008614118
./script_traces/nocache/cjpeg.nocache.csv,10624.0,0.4793303212851406,0.15498128882243867,2.32,1.1966282597027336
./script_traces/nocache/search_large.csv,8960.0,0.779416369047619,0.09833421119760223,3.13,1.5285498508274593
./script_traces/nocache/qsort_small.csv,322688.0,0.7185988947626815,0.09309322393962799,7.41,2.4704107538887725
./script_traces/nocache/matmul_int_16.csv,2560.0,0.7860781250000001,0.028135408408095527,1.17,0.4507009131689365
./script_traces/nocache/dijkstra.csv,14848.0,0.8036369636460019,0.025726428634318278,16.0,3.897681258379037
./script_traces/nocache/matmul_int_32.csv,4864.0,0.7812872807017541,0.06381619000439437,1.8,0.9428090415820637
./script_traces/nocache/susan_edge_large.csv,168704.0,0.9423487024246185,0.011067001566334516,28.98,5.35408840291815
average,46848.0,0.7530605164362613,0.06655468471112075,7.697500000000001,2.077873404665267
