interval,evicts,flushes,mem_wr,read_hits,read_misses,stores,write_hits,write_misses
0,1,40,41,460502,32,406678,406640,38
1,0,22,22,455598,31,402012,401995,17
2,48,74,122,459647,84,405189,405103,86
3,295,79,374,872517,280,733635,733512,123
4,292,73,365,873602,262,735065,734926,139
5,256,76,332,870519,256,733470,733355,115
6,65,66,131,154528,100,130141,130087,54
